<svg xmlns="http://www.w3.org/2000/svg" width="15" height="16" viewBox="0 0 15 16" fill="none">
  <path d="M11.2 8.8H7.2V12.8H11.2V8.8ZM10.4 0V1.6H4V0H2.4V1.6H1.6C0.712 1.6 0.00799999 2.32 0.00799999 3.2L0 14.4C0 15.28 0.712 16 1.6 16H12.8C13.68 16 14.4 15.28 14.4 14.4V3.2C14.4 2.32 13.68 1.6 12.8 1.6H12V0H10.4ZM12.8 14.4H1.6V5.6H12.8V14.4Z" fill="#20BDBE"/>
</svg>
